%YAML 1.1
%TAG !u! tag:unity3d.com,2011:
--- !u!1045 &1
EditorBuildSettings:
  m_ObjectHideFlags: 0
  serializedVersion: 2
  m_Scenes: []
  m_configObjects:
    Unity.XR.Oculus.Settings: {fileID: 11400000, guid: c6133bc019c95ed48bbb37aa3f6b28bb, type: 2}
    com.unity.xr.management.loader_settings: {fileID: 11400000, guid: 6a67881fc04c4ef41ba9fc1d08fa2261, type: 2}
    com.unity.xr.openxr.settings4: {fileID: 11400000, guid: ae259ce097a87ad42a128d006b9df2e1, type: 2}
